{
    "trash": {
        "path": "~/.trash/Trash",
        "max_size": "100.kb",
        "name_duplicate": "get_uniq"
    },
    "remove_policy": {
        "access_action": "default"
    },
    "restore_policy": {
        "folder_not_found": "create",
        "name_duplicate": "get_uniq"
    },
    "clear_policy": {
        "by_date": "1.d",
        "by_size": "10.kb"
    },

    "folder_not_found": ["create", "ask"],
    "name_duplicate": ["get_uniq", "replace"],
    "access_action": ["default", "ask", "force"],
    "clear_by_date": ["off", "N.H", "N.M", "N.S", "N.d", "N.m, N.y", "N - integer"],
    "*_size": ["N.b", "N.kb", "N.mb", "N - insteger"]
}
